<?xml version="1.0" encoding="UTF-8"?>
<symbol version="7" name="clock">
    <symboltype>BLOCK</symboltype>
    <timestamp>2013-4-16T13:23:14</timestamp>
    <pin polarity="Input" x="0" y="80" name="clk_in1" />
    <pin polarity="Input" x="0" y="432" name="reset" />
    <pin polarity="Output" x="608" y="80" name="clk_out1" />
    <graph>
        <text style="fontsize:40;fontname:Arial" x="32" y="32">clock</text>
        <rect width="544" x="32" y="32" height="1056" />
        <line x2="32" y1="80" y2="80" x1="0" />
        <attrtext style="fontsize:24;fontname:Arial" attrname="PinName" x="36" y="80" type="pin clk_in1" />
        <line x2="32" y1="432" y2="432" x1="0" />
        <attrtext style="fontsize:24;fontname:Arial" attrname="PinName" x="36" y="432" type="pin reset" />
        <line x2="576" y1="80" y2="80" x1="608" />
        <attrtext style="alignment:RIGHT;fontsize:24;fontname:Arial" attrname="PinName" x="572" y="80" type="pin clk_out1" />
    </graph>
</symbol>
